%YAML 1.1
%TAG !u! tag:unity3d.com,2011:
--- !u!1 &4088099160008128638
GameObject:
  m_ObjectHideFlags: 0
  m_CorrespondingSourceObject: {fileID: 0}
  m_PrefabInstance: {fileID: 0}
  m_PrefabAsset: {fileID: 0}
  serializedVersion: 6
  m_Component:
  - component: {fileID: 4088099160008128636}
  - component: {fileID: 4088099160008128634}
  - component: {fileID: 4088099160008128637}
  m_Layer: 0
  m_Name: GameManager
  m_TagString: Untagged
  m_Icon: {fileID: 0}
  m_NavMeshLayer: 0
  m_StaticEditorFlags: 0
  m_IsActive: 1
--- !u!4 &4088099160008128636
Transform:
  m_ObjectHideFlags: 0
  m_CorrespondingSourceObject: {fileID: 0}
  m_PrefabInstance: {fileID: 0}
  m_PrefabAsset: {fileID: 0}
  m_GameObject: {fileID: 4088099160008128638}
  m_LocalRotation: {x: 0, y: 0, z: 0, w: 1}
  m_LocalPosition: {x: 0, y: 1, z: -10}
  m_LocalScale: {x: 1, y: 1, z: 1}
  m_Children: []
  m_Father: {fileID: 0}
  m_RootOrder: 0
  m_LocalEulerAnglesHint: {x: 0, y: 0, z: 0}
--- !u!114 &4088099160008128634
MonoBehaviour:
  m_ObjectHideFlags: 0
  m_CorrespondingSourceObject: {fileID: 0}
  m_PrefabInstance: {fileID: 0}
  m_PrefabAsset: {fileID: 0}
  m_GameObject: {fileID: 4088099160008128638}
  m_Enabled: 1
  m_EditorHideFlags: 0
  m_Script: {fileID: 11500000, guid: 44489f03e5c38074fa413f050e390b01, type: 3}
  m_Name: 
  m_EditorClassIdentifier: 
  Attack: {fileID: 0}
  Menu: {fileID: 0}
--- !u!114 &4088099160008128637
MonoBehaviour:
  m_ObjectHideFlags: 0
  m_CorrespondingSourceObject: {fileID: 0}
  m_PrefabInstance: {fileID: 0}
  m_PrefabAsset: {fileID: 0}
  m_GameObject: {fileID: 4088099160008128638}
  m_Enabled: 1
  m_EditorHideFlags: 0
  m_Script: {fileID: 11500000, guid: b486e5bb394437f4b8a36b5be1252185, type: 3}
  m_Name: 
  m_EditorClassIdentifier: 
  itemBox: {fileID: 0}
  mCode: 0
  playerConnect: {fileID: 0}
  dsinUI: {fileID: 11400000, guid: f5d4f878fa3f37e41b68f67bd8d80ad8, type: 2}
  tainUIF: {fileID: 0}
  itemCounts: 0
  parHP: 0
  texter: {fileID: 0}
  textar: {fileID: 0}
  target: {fileID: 0}
