%YAML 1.1
%TAG !u! tag:unity3d.com,2011:
--- !u!114 &11400000
MonoBehaviour:
  m_ObjectHideFlags: 0
  m_CorrespondingSourceObject: {fileID: 0}
  m_PrefabInstance: {fileID: 0}
  m_PrefabAsset: {fileID: 0}
  m_GameObject: {fileID: 0}
  m_Enabled: 1
  m_EditorHideFlags: 0
  m_Script: {fileID: 11500000, guid: 7b9e74245619ed64e821f28398944318, type: 3}
  m_Name: New Data Sheet
  m_EditorClassIdentifier: 
  dataName: 
  maxHP: 0
  hp: 3
  atk: 0
  def: 0
  itemData: 0
  itemName: "\u30B9\u30D5\u30A3\u30A2\u306E\u30C7\u30FC\u30BF\u7247"
  thisObject: {fileID: 0}
